Request body is :{
    "name": "morpheus",
    "job": "leader"
}

End point is :https://reqres.in/api/users/2

Response body is :{"name":"morpheus","job":"leader","updatedAt":"2024-02-12T07:15:33.967Z"}